…
    ## Using an auto-discovered, cached token.
    ## To suppress this message, modify your code or options to clearly consent to the use of a cached token.
    ## See gargle's "Non-interactive auth" vignette for more details:
    ## https://gargle.r-lib.org/articles/non-interactive-auth.html
    ## The bigrquery package is using a cached token for felipexgonzalez@gmail.com.

``` r
total_año_reg <- nac_tbl %>% group_by(ANO_REG) %>% tally() %>% collect()
total_año_reg %>% arrange(ANO_REG)
```

    ## # A tibble: 34 x 2
    ##    ANO_REG       n
    ##      <int>   <int>
    ##  1    1985 2655571
    ##  2    1986 2579301
    ##  3    1987 2794390
    ##  4    1988 2622031
    ##  5    1989 2620262
    ##  6    1990 2735312
    ##  7    1991 2756447
    ##  8    1992 2797397
    ##  9    1993 2839686
    ## 10    1994 2904389
    ## # … with 24 more rows
…
